…
_13.3.1.1: Add a surrogate key to flights._

```r
flights%>%
  arrange(year, month, day, origin, dest, tailnum, carrier)%>%
  mutate(flights_No.=row_number())
```

```
## # A tibble: 336,776 x 20
##     year month   day dep_time sched_dep_time dep_delay arr_time sched_arr_time
##    <int> <int> <int>    <int>          <int>     <dbl>    <int>          <int>
##  1  2013     1     1     2056           2004        52     2156           2112
##  2  2013     1     1     1315           1317        -2     1413           1423
##  3  2013     1     1     1655           1621        34     1804           1724
##  4  2013     1     1     1203           1205        -2     1501           1437
##  5  2013     1     1     1649           1639        10     1937           1911
##  6  2013     1     1      615            615         0      833            842
##  7  2013     1     1      857            900        -3     1124           1133
##  8  2013     1     1     1707           1705         2     1928           1940
##  9  2013     1     1     1424           1420         4     1659           1644
## 10  2013     1     1     1144           1145        -1     1422           1411
## # ... with 336,766 more rows, and 12 more variables: arr_delay <dbl>,
## #   carrier <chr>, flight <int>, tailnum <chr>, origin <chr>, dest <chr>,
## #   air_time <dbl>, distance <dbl>, hour <dbl>, minute <dbl>, time_hour <dttm>,
## #   flights_No. <int>
```
…
_13.4.6.1: Compute the average delay by destination, then join on the airports data frame so you can show the spatial distribution of delays._

```r
average_delay<-flights%>%
  group_by(dest)%>%
  summarise(delay=mean(arr_delay, na.rm = TRUE))%>%
  left_join(airports, by=c(dest="faa"))%>%
  print()
```

```
## # A tibble: 105 x 9
##    dest  delay name                     lat    lon   alt    tz dst   tzone      
##    <chr> <dbl> <chr>                  <dbl>  <dbl> <dbl> <dbl> <chr> <chr>      
##  1 ABQ    4.38 Albuquerque Internati~  35.0 -107.   5355    -7 A     America/De~
##  2 ACK    4.85 Nantucket Mem           41.3  -70.1    48    -5 A     America/Ne~
##  3 ALB   14.4  Albany Intl             42.7  -73.8   285    -5 A     America/Ne~
##  4 ANC   -2.5  Ted Stevens Anchorage~  61.2 -150.    152    -9 A     America/An~
##  5 ATL   11.3  Hartsfield Jackson At~  33.6  -84.4  1026    -5 A     America/Ne~
##  6 AUS    6.02 Austin Bergstrom Intl   30.2  -97.7   542    -6 A     America/Ch~
##  7 AVL    8.00 Asheville Regional Ai~  35.4  -82.5  2165    -5 A     America/Ne~
##  8 BDL    7.05 Bradley Intl            41.9  -72.7   173    -5 A     America/Ne~
##  9 BGR    8.03 Bangor Intl             44.8  -68.8   192    -5 A     America/Ne~
## 10 BHM   16.9  Birmingham Intl         33.6  -86.8   644    -6 A     America/Ch~
## # ... with 95 more rows
```
…
_13.4.6.2: Add the location of the origin and destination (i.e. the lat and lon) to flights._

```r
location<-airports%>%
  select(faa, lon, lat)
flights%>%
  select(year, month, day, origin, dest)%>%
  left_join(location, by=c(origin="faa"))%>%
  left_join(location, by=c(dest="faa"))
```

```
## # A tibble: 336,776 x 9
##     year month   day origin dest  lon.x lat.x lon.y lat.y
##    <int> <int> <int> <chr>  <chr> <dbl> <dbl> <dbl> <dbl>
##  1  2013     1     1 EWR    IAH   -74.2  40.7 -95.3  30.0
##  2  2013     1     1 LGA    IAH   -73.9  40.8 -95.3  30.0
##  3  2013     1     1 JFK    MIA   -73.8  40.6 -80.3  25.8
##  4  2013     1     1 JFK    BQN   -73.8  40.6  NA    NA  
##  5  2013     1     1 LGA    ATL   -73.9  40.8 -84.4  33.6
##  6  2013     1     1 EWR    ORD   -74.2  40.7 -87.9  42.0
##  7  2013     1     1 EWR    FLL   -74.2  40.7 -80.2  26.1
##  8  2013     1     1 LGA    IAD   -73.9  40.8 -77.5  38.9
##  9  2013     1     1 JFK    MCO   -73.8  40.6 -81.3  28.4
## 10  2013     1     1 LGA    ORD   -73.9  40.8 -87.9  42.0
## # ... with 336,766 more rows
```

_13.5.1.2: Filter flights to only show flights with planes that have flown at least 100 flights._

```r
plane_100 <-flights%>%
  filter(!is.na(tailnum))%>%
  group_by(tailnum)%>%
  count()%>%
  filter(n>=100)%>%
  print(
  )
```

```
## # A tibble: 1,217 x 2
## # Groups:   tailnum [1,217]
##    tailnum     n
##    <chr>   <int>
##  1 N0EGMQ    371
##  2 N10156    153
##  3 N10575    289
##  4 N11106    129
##  5 N11107    148
##  6 N11109    148
##  7 N11113    138
##  8 N11119    148
##  9 N11121    154
## 10 N11127    124
## # ... with 1,207 more rows
```
…
_13.5.1.4: Find the 48 hours (over the course of the whole year) that have the worst delays. Cross-reference it with the weather data. Can you see any patterns?_

```r
worst_hours<-flights%>%
  mutate(hr=sched_dep_time %/% 100)%>%
  group_by(origin, year, month, day, hr)%>%
  summarize(arr_dep_delay=mean(dep_delay, na.rm=TRUE))%>%
  arrange(desc(arr_dep_delay))%>%
  head(48)%>%
  print()
```

```
## # A tibble: 48 x 6
## # Groups:   origin, year, month, day [24]
##    origin  year month   day    hr arr_dep_delay
##    <chr>  <int> <int> <int> <dbl>         <dbl>
##  1 LGA     2013     7    28    21          280.
##  2 EWR     2013     2     9    10          269 
##  3 EWR     2013     2     9     9          266 
##  4 LGA     2013     9     2    16          250.
##  5 LGA     2013     7    22    18          246.
##  6 LGA     2013     7    28    19          240.
##  7 JFK     2013     4    10    21          237 
##  8 LGA     2013     9    12    20          226.
##  9 EWR     2013     3     8    12          225.
## 10 LGA     2013    12     5    11          221.
## # ... with 38 more rows
```

```r
worst_weather<-semi_join(weather, worst_hours, by=c("origin", "year", "month", "day"))%>%
  print()
```

```
## # A tibble: 576 x 15
##    origin  year month   day  hour  temp  dewp humid wind_dir wind_speed
##    <chr>  <int> <int> <int> <int> <dbl> <dbl> <dbl>    <dbl>      <dbl>
##  1 EWR     2013     2     9     0  28.0  26.1  92.2      360       11.5
##  2 EWR     2013     2     9     1  28.0  27.0  95.6      350       11.5
##  3 EWR     2013     2     9     2  28.9  28.9 100        350       18.4
##  4 EWR     2013     2     9     3  30.0  28.4 100        330       13.8
##  5 EWR     2013     2     9     4  30.2  27.0  88.2      320       13.8
##  6 EWR     2013     2     9     5  30.2  24.8  80.1      310       16.1
##  7 EWR     2013     2     9     6  30.0  23    74.8      280       10.4
##  8 EWR     2013     2     9     7  28.4  21.2  74.1      300       23.0
##  9 EWR     2013     2     9     8  27.0  18.0  68.4      310       18.4
## 10 EWR     2013     2     9     9  27.0  17.1  65.8      310       13.8
## # ... with 566 more rows, and 5 more variables: wind_gust <dbl>, precip <dbl>,
## #   pressure <dbl>, visib <dbl>, time_hour <dttm>
```
…
