…
```r
#> # A tibble: 12 x 4
#>   country      year type           count
#>   <chr>       <int> <chr>          <int>
#> 1 Afghanistan  1999 cases            745
#> 2 Afghanistan  1999 population  19987071
#> 3 Afghanistan  2000 cases           2666
#> 4 Afghanistan  2000 population  20595360
#> 5 Brazil       1999 cases          37737
#> 6 Brazil       1999 population 172006362
#> # … with 6 more rows 
…
```r
who4 <- who3 %>% 
  select(-new, -iso2, -iso3)
who5 <- who4 %>% 
  separate(sexage, c("sex", "age"), sep = 1)%>%
  print()
```

```
## # A tibble: 76,046 x 7
##    country      year type  sex   age   cases names_from  
##    <chr>       <int> <chr> <chr> <chr> <int> <chr>       
##  1 Afghanistan  1997 sp    m     014       0 new_sp_m014 
##  2 Afghanistan  1997 sp    m     1524     10 new_sp_m1524
##  3 Afghanistan  1997 sp    m     2534      6 new_sp_m2534
##  4 Afghanistan  1997 sp    m     3544      3 new_sp_m3544
##  5 Afghanistan  1997 sp    m     4554      5 new_sp_m4554
##  6 Afghanistan  1997 sp    m     5564      2 new_sp_m5564
##  7 Afghanistan  1997 sp    m     65        0 new_sp_m65  
##  8 Afghanistan  1997 sp    f     014       5 new_sp_f014 
##  9 Afghanistan  1997 sp    f     1524     38 new_sp_f1524
## 10 Afghanistan  1997 sp    f     2534     36 new_sp_f2534
## # ... with 76,036 more rows
```
…
