…
## 12.2.1.2: Compute the rate for table2, and table4a + table4b. You will need to perform four operations:

Extract the number of TB cases per country per year.  
Extract the matching population per country per year.  
Divide cases by population, and multiply by 10000.  
Store back in the appropriate place.  
Which representation is easiest to work with? Which is hardest? Why?  
```{r}
table2
#> # A tibble: 12 x 4
#>   country      year type           count
#>   <chr>       <int> <chr>          <int>
#> 1 Afghanistan  1999 cases            745
#> 2 Afghanistan  1999 population  19987071
#> 3 Afghanistan  2000 cases           2666
#> 4 Afghanistan  2000 population  20595360
#> 5 Brazil       1999 cases          37737
#> 6 Brazil       1999 population 172006362
#> # … with 6 more rows 
…
