…
### Why this distribution is quite similar to a hyperbola?  

## 7.3.4.3:  
## How many diamonds are 0.99 carat? How many are 1 carat? What do you think is the cause of the difference?

```r
diamonds%>%
  count(cut_width(carat, 0.01))
```

```
## # A tibble: 273 x 2
##    `cut_width(carat, 0.01)`     n
##    <fct>                    <int>
##  1 [0.195,0.205]               12
##  2 (0.205,0.215]                9
##  3 (0.215,0.225]                5
##  4 (0.225,0.235]              293
##  5 (0.235,0.245]              254
##  6 (0.245,0.255]              212
##  7 (0.255,0.265]              253
##  8 (0.265,0.275]              233
##  9 (0.275,0.285]              198
## 10 (0.285,0.295]              130
## # ... with 263 more rows
```
…
